{
  "employee": [
    {
      "referenceNo": "1536090",
      "lastname": "Flores",
      "firstname": "David",
      "middlename": "",
      "dateOfBirth": "02/05/1965",
      "homeAddress": "100 Knolwwod Rd, 6L, Brooklyn NY 10001",
      "payrollLocation": "Q310-WILLOW AV REPAIRSHOP",
      "title": "Sanitation Worker",
      "badgeNo": "12333",
      "chartNo": "000",
      "hireDate": "6/1/2010",
      "promotionDate": "4/12/2012",
      "vacationSchedule": "12, 13, 18",
      "underProbation": "false",
      "district": 1,
      "borough": 1
    },
    {
      "referenceNo": "0319576",
      "lastname": "Collins",
      "firstname": "Josheph",
      "middlename": "",
      "dateOfBirth": "08/05/1962",
      "homeAddress": "190 Greenwood Ave, 6L, Brooklyn NY 10011",
      "payrollLocation": "Q109",
      "title": "Sanitation Worker",
      "badgeNo": "07990",
      "chartNo": "003",
      "hireDate": "9/1/2010",
      "promotionDate": "2/12/2015",
      "vacationSchedule": "14, 19, 22",
      "underProbation": "true",
      "district": 4,
      "borough": 4
    },
    {
      "referenceNo": "1450306",
      "lastname": "Chodoff",
      "firstname": "Samuel",
      "middlename": "",
      "dateOfBirth": "09/05/1959",
      "homeAddress": "320 Beach Ave, 10G, Brooklyn NY 12011",
      "payrollLocation": "BK350",
      "title": "Supervisor of Mechanics",
      "badgeNo": "17990",
      "chartNo": "103",
      "hireDate": "10/1/2009",
      "promotionDate": "1/12/2014",
      "vacationSchedule": "9, 14, 28",
      "underProbation": "false",
      "district": 6,
      "borough": 2
    },
    {
      "referenceNo": "0326377",
      "lastname": "Farrauto",
      "firstname": "Louis",
      "middlename": "",
      "dateOfBirth": "08/18/1974",
      "homeAddress": "193 Breezy Ave, 6L, Brooklyn NY 10013",
      "payrollLocation": "Q105",
      "title": "Sanitation Worker",
      "badgeNo": "73990",
      "chartNo": "013",
      "hireDate": "7/1/2014",
      "promotionDate": "4/12/2019",
      "vacationSchedule": "12, 17, 21",
      "underProbation": "true",
      "district": 1,
      "borough": 1
    },
    {
      "referenceNo": "1014567",
      "lastname": "Raine",
      "firstname": "John",
      "middlename": "A",
      "dateOfBirth": "11/05/1972",
      "homeAddress": "190 Forest Ave, 16H, Brooklyn NY 10211",
      "payrollLocation": "Q102",
      "title": "Sanitation Worker",
      "badgeNo": "53090",
      "chartNo": "004",
      "hireDate": "6/1/2010",
      "promotionDate": "2/12/2013",
      "vacationSchedule": "15, 20, 22",
      "underProbation": "false",
      "district": 5,
      "borough": 3
    },
    {
      "referenceNo": "1234567",
      "lastname": "Aviles",
      "firstname": "Frank",
      "middlename": "M",
      "dateOfBirth": "08/05/1962",
      "homeAddress": "59 Knockerbucker Ave, 11L, Brooklyn NY 10031",
      "payrollLocation": "Q109",
      "title": "Sanitation Worker",
      "badgeNo": "13992",
      "chartNo": "008",
      "hireDate": "9/4/2011",
      "promotionDate": "2/17/2018",
      "vacationSchedule": "08, 11, 24",
      "underProbation": "false",
      "district": 3,
      "borough": 2
    }
  ]
}



