{
  "templates": [
    {
      "name": "1.4 AWOL",
      "code": "PAP2007-04"
    },
    {
      "name": "No Doc. Cat A",
      "code": "PAP2007-04"
    },
    {
      "name": "No Doc. Cat B",
      "code": "PAP2007-04"
    },
    {
      "name": "No Doc. Cat C",
      "code": "PAP2007-04"
    },
    {
      "name": "Lateness",
      "code": "PAP2007-04"
    },
    {
      "name": "MVA",
      "code": "MVA GO 2002-06 CODE OF CONDUCT, 5.1, 5.4, 5.11, 5.12"
    },
    {
      "name": "License",
      "code": "License GO 2002-06 CODE OF CONDUCT 3.4"
    },
    {
      "name": "Not Home Visit",
      "code": "PAP2007-04"
    },
    {
      "name": "Not Home Telephone",
      "code": "PAP2007-04"
    },
    {
      "name": "No Doc. HVP Code",
      "code": "PAP2007-04"
    },
    {
      "name": "No Phone",
      "code": "PAP2007-04"
    },
    {
      "name": "Disconnected Phone",
      "code": "PAP2007-04"
    },
    {
      "name": "Tox Test",
      "code": ""
    },
    {
      "name": "Guide Man",
      "code": "Guide Man GO 2002-06 CODE OF CONDUCT, 5.4, 5.11"
    },
    {
      "name": "Red Light",
      "code": "Red Light GO 2002-06 CODE OF CONDUCT 5.4"
    },
    {
      "name": "Seat Belt",
      "code": "Seat Belt GO 2002-06 CODE OF CONDUCT, 5.11, GO 2009-07 THE USE OF SEATBELTS AND HARNESSES IN DEPARTMENT OF SANITATION VEHICLES"
    },
    {
      "name": "Absent Without Authority",
      "code": "Absent Without Authority"
    },
    {
      "name": "DSNY Trial Letter",
      "code": "DSNY Trial Letter"
    },
    {
      "name": "Deemed Prejudicial",
      "code": "Deemed Prejudicial"
    },
    {
      "name": "1.5 For No Proof",
      "code": ""
    },
    {
      "name": "1.5 For Denied Proof",
      "code": ""
    }
  ]
}